{ 
    "development": { 
        "username": "아이디", 
        "password": "패스워드", 
        "database": "shop_rest", 
        "host": "접속정보", 
        "dialect": "mysql", 
        "operatorAliases" : false 
    } 
}

